[
    {
        "num": 1,
        "safe_title": "Title 1",
        "img": "https://imgs.xkcd.com/comics/tax_ai_2x.png",
        "alt": "Alt text for 1",
        "isFavourite": false
    },
    {
        "num": 2,
        "safe_title": "Title 2",
        "img": "https://imgs.xkcd.com/comics/satellite_2x.png",
        "alt": "Alt text for 2",
        "isFavourite": false
    },
    {
        "num": 3,
        "safe_title": "Title 3",
        "img": "https://imgs.xkcd.com/comics/cicadas_2x.png",
        "alt": "Alt text for 3",
        "isFavourite": false
    },
    {
        "num": 4,
        "safe_title": "Title 4",
        "img": "https://imgs.xkcd.com/comics/parker_solar_probe_2x.png",
        "alt": "Alt text for 4",
        "isFavourite": false
    },
    {
        "num": 5,
        "safe_title": "Title 5",
        "img": "https://imgs.xkcd.com/comics/worst_thing_that_could_happen_2x.png",
        "alt": "Alt text for 5",
        "isFavourite": false
    }
]
